…
    ## [1] 0.3770492

The proportion of station entrances / exits without vending but that allow entrance is 0.377.

Reformat data so that route number and route name are distinct variables.

``` r
NYC_transit_tidy_data = gather(NYC_transit_data, key = route_number, value = route_name, route1:route11)
NYC_transit_tidy_data
```

    ## # A tibble: 20,548 x 9
    ##    line  station_name station_latitude station_longitu… entry vending ada  
    ##    <chr> <chr>                   <dbl>            <dbl> <lgl> <chr>   <lgl>
    ##  1 4 Av… 25th St                  40.7            -74.0 TRUE  YES     FALSE
    ##  2 4 Av… 25th St                  40.7            -74.0 TRUE  YES     FALSE
    ##  3 4 Av… 36th St                  40.7            -74.0 TRUE  YES     FALSE
    ##  4 4 Av… 36th St                  40.7            -74.0 TRUE  YES     FALSE
    ##  5 4 Av… 36th St                  40.7            -74.0 TRUE  YES     FALSE
    ##  6 4 Av… 45th St                  40.6            -74.0 TRUE  YES     FALSE
    ##  7 4 Av… 45th St                  40.6            -74.0 TRUE  YES     FALSE
    ##  8 4 Av… 45th St                  40.6            -74.0 TRUE  YES     FALSE
    ##  9 4 Av… 45th St                  40.6            -74.0 TRUE  YES     FALSE
    ## 10 4 Av… 53rd St                  40.6            -74.0 TRUE  YES     FALSE
    ## # ... with 20,538 more rows, and 2 more variables: route_number <chr>,
    ## #   route_name <chr>
…
